Property Name,Property Address [1],Property  Address [2],Property Address [3],Property Address [4],Unit Name,Tenant Name,Lease Start Date,Lease End Date,Lease Years,Current Rent
Beecroft Hill,Broad Lane,,,LS13,Beecroft Hill - Telecom App,Arqiva Services ltd,01 Mar 1994,28 Feb 2058,64,23950.00
Potternewton Crescent,Potternewton Est Playing Field,,,LS7,Potternewton Est Playing Field,Arqiva Ltd,24 Jun 1999,23 Jun 2019,20,6600.00
Seacroft Gate (Chase) - Block 2,Telecomms Apparatus,Leeds,,LS14,Seacroft Gate (Chase) block 2-Telecom App.,Vodafone Ltd.,30 Jan 2004,29 Jan 2029,25,12250.00
Queenswood Heights,Queenswood Heights,Queenswood Gardens,Headingley,Leeds,Queenswood Hgt-Telecom App.,Vodafone Ltd,08 Nov 2004,07 Nov 2029,25,9500.00
Armley - Burnsall Grange,Armley,LS13,,,Burnsall Grange CSR 37865,O2 (UK) Ltd,26 Jul 2007,25 Jul 2032,25,12000.00
Seacroft Gate (Chase) - Block 2,Telecomms Apparatus,Leeds,,LS14,"Seacroft Gate (Chase) - Block 2, WYK 0414",Hutchinson3G Uk Ltd&Everything Everywhere Ltd,21 Aug 2007,20 Aug 2032,25,12750.00
Cottingley Towers,Leeds,,,LS11,Cottingley Towers-WYK0052,Everything Everywhere Ltd,28 Jan 2008,27 Jan 2018,10,12750.00
Potternewton Heights - Tel App,Potternewton Heights,Potternewton Lne,Leeds,,Potternewton Heights,Everything Everywhere Ltd,04 Mar 2008,03 Mar 2018,10,12750.00
Gipton Gate West,Leeds,,,LS9,Gipton Gate West-WYK0021,Everything Everywhere Ltd & Hutchinson 3G UK,01 Apr 2008,31 Mar 2018,10,12750.00
Theaker Lane,Burnsall Grange,Leeds,,LS12,Burnsall Grange - WYK0144,Everything Everywhere Ltd,29 Apr 2008,28 Apr 2018,10,12750.00
Gledhow Towers - Telecom App,Brackenwood Drive,Leeds,,,Gledhow Towers - WYK0188,Everything Everywhere Ltd & Hutchinson 3G UK,20 May 2008,19 May 2018,10,12750.00
Lovell Park Heights,Yeb,,,LS7,Lovell Park Heights-- WYK0207,Everything Everywhere Ltd,17 Jun 2008,16 Jun 2018,10,12750.00
Shakespeare Towers,,,,LS9,Shakespeare Towers ref 1704255985,EverythingEverywhere Ltd & Hutchinson3GUK Ltd,10 Jun 2009,09 Jun 2019,10,12750.00
Grayson Heights,Eden Mount,Burley Park,Leeds,LS5,Grayson Heights LDS175   LS0029,Everything Everywhere Ltd&Hutchison 3G UK Ltd,01 Aug 2009,31 Jul 2019,10,14730.08
Oatland Towers,Little London,,Leeds,,Oatland Towers LDS133   99603,Everything Everywhere Ltd&Hutchison 3G UK Ltd,01 Aug 2009,31 Jul 2019,10,15296.63
The Heights East,Gamble Hill,Bramley,Leeds 12,,The Heights East LDS045   55032,Everything Everywhere Ltd&Hutchison 3G UK Ltd,01 Aug 2009,31 Jul 2019,10,14730.08
The Heights,Farrow Bank Gamble Hill,Leeds,,,Raynville Court LDS047   55035,Everything Everywhere Ltd&Hutchison 3G UK LTd,01 Aug 2009,31 Jul 2019,10,14730.08
Barncroft Towers,Seacroft,Yeb Ref 10462,,LS14,Barncroft Towers - Site Ref LDS138   99632,Everything Everywhere Ltd&Hutchison 3G UK Ltd,01 Aug 2009,31 Jul 2019,10,14730.08
Queens View,Seacroft,,,LS14,Queens View LDS232   LS0098,Everything Everywhere Ltd&Hutchison 3G UK Ltd,01 Aug 2009,31 Jul 2019,10,28327.09
Parkway Grange,Foundry Lane,Leeds,,LS14,Parkway Grange - Site Ref LDS134   99604,Everything Everywhere Ltd&Hutchsion 3G UK Ltd,01 Aug 2009,31 Jul 2019,10,14730.08
Seacroft Gate Block 1,Eastdean,Leeds,,,Seacroft Gate Block 1 LDS032   55007,Everything Everywhere Ltd&Hutchison 3G UK Ltd,01 Aug 2009,31 Jul 2019,10,14730.08
Cartmell Drive,
Norman Towers (Telecom Appar),Spen Lane,Leeds,,LS16,Norman Towers LDS132 (Telecom Appar)   99448,Everything Everywhere Ltd&Hutchsion 3G Ltd,01 Aug 2009,31 Jul 2019,10,14730.08
Clayton Court,Fillingfir Drive,,Leeds,LS18,Clayton Court LDS198   LS0056,Everything Everywhere Ltd & Hutchison 3G Ltd,01 Aug 2009,31 Jul 2019,10,15296.63
Meynell Heights,,,,LS11,Meynell Heights- Wyk0184,Everything Everywhere Ltd & Hutchinson 3G UK,03 Aug 2009,02 Aug 2019,10,12750.00
Larkhill Road,Lidgett Towers,Larkhill Road,Leeds,,Lidgett Towers - Site ref 27874,Everything Everywhere Ltd&Hutchison 3G UK Ltd,05 Jul 2010,04 Jul 2020,10,13000.00
Marlborough Towers,Marlborough Towers,Park Lane,Leeds,,Marlborough Towers-Telecom App 7942vf,Cornerstone Telecommunications Infrastructure,31 Mar 2015,30 Mar 2030,15,15000.00
Queenswood Drive - Telecom Site,Headingley,Leeds,LS6,,Queenswood Drive-Q'wood Ct building 19089o2,Cornerstone Telecommunications Infrastructure,31 Mar 2015,30 Mar 2030,15,15000.00
Clayton Court,Fillingfir,,Leeds,,Clayton Court 11279vf,Cornerstone Telecommunications Infrastructure,31 Mar 2015,30 Mar 2030,15,15000.00
Gledhow Towers - Telecom App,Brackenwood Drive,Leeds,,,Gledhow Towers - Telecom App (34909vf),Cornerstone Telecommunications Infrastructure,31 Mar 2015,30 Mar 2030,15,15000.00
Larkhill Road,Lidgett Towers,Larkhill Road,Leeds,,Lidgett Towers - Telecom App 3420vf,Cornerstone Telecommunications Infrastructure,31 Mar 2015,30 Mar 2030,15,15000.00
